{
  "appNotification" : {
    "_id" : "wm-appErrorHandler-wm.NotificationVariable-1454664620943",
    "name" : "appNotification",
    "owner" : "App",
    "category" : "wm.NotificationVariable",
    "dataBinding" : [ {
      "target" : "class",
      "value" : "Error",
      "type" : "list"
    }, {
      "target" : "toasterPosition",
      "value" : "bottom right",
      "type" : "list"
    } ],
    "operation" : "toast"
  },
  "goToPage_FilterScenario" : {
    "_id" : "wm-goToPage_FilterScenario-wm.NavigationVariable-1510295140400",
    "name" : "goToPage_FilterScenario",
    "owner" : "App",
    "category" : "wm.NavigationVariable",
    "dataBinding" : [ ],
    "operation" : "gotoPage",
    "pageName" : "FilterScenario",
    "dataSet" : [ ],
    "pageTransitions" : "none"
  },
  "goToPage_Main" : {
    "_id" : "wm-wm.NavigationVariable1389180517517",
    "name" : "goToPage_Main",
    "owner" : "App",
    "category" : "wm.NavigationVariable",
    "operation" : "gotoPage",
    "pageName" : "Main"
  },
  "goToPage_Queries" : {
    "_id" : "wm-goToPage_Queries-wm.NavigationVariable-1510210557501",
    "name" : "goToPage_Queries",
    "owner" : "App",
    "category" : "wm.NavigationVariable",
    "dataBinding" : [ ],
    "operation" : "gotoPage",
    "pageName" : "Queries",
    "dataSet" : [ ],
    "pageTransitions" : "none"
  },
  "goToPage_ReferencedEnitites" : {
    "_id" : "wm-goToPage_ReferencedEnitites-wm.NavigationVariable-1510296416741",
    "name" : "goToPage_ReferencedEnitites",
    "owner" : "App",
    "category" : "wm.NavigationVariable",
    "dataBinding" : [ ],
    "operation" : "gotoPage",
    "pageName" : "ReferencedEnitites",
    "dataSet" : [ ],
    "pageTransitions" : "none"
  },
  "goToPage_Test" : {
    "_id" : "wm-goToPage_Test-wm.NavigationVariable-1510205987819",
    "name" : "goToPage_Test",
    "owner" : "App",
    "category" : "wm.NavigationVariable",
    "dataBinding" : [ ],
    "operation" : "gotoPage",
    "pageName" : "Test",
    "dataSet" : [ ],
    "pageTransitions" : "none"
  },
  "goToPage_UseProxy" : {
    "_id" : "wm-goToPage_UseProxy-wm.NavigationVariable-1510225366727",
    "name" : "goToPage_UseProxy",
    "owner" : "App",
    "category" : "wm.NavigationVariable",
    "dataBinding" : [ ],
    "operation" : "gotoPage",
    "pageName" : "UseProxy",
    "dataSet" : [ ],
    "pageTransitions" : "none"
  },
  "loggedInUser" : {
    "_id" : "wm-loggedInUser-wm.Variable-1510225742295",
    "name" : "loggedInUser",
    "owner" : "App",
    "category" : "wm.Variable",
    "dataBinding" : [ ],
    "dataSet" : {
      "name" : "",
      "id" : "",
      "tenantId" : "",
      "isAuthenticated" : false,
      "isSecurityEnabled" : true,
      "roles" : [ ]
    },
    "type" : "string",
    "isList" : false,
    "saveInPhonegap" : false
  },
  "loginAction" : {
    "_id" : "wm-loginAction-wm.LoginVariable-1510225742294",
    "name" : "loginAction",
    "owner" : "App",
    "category" : "wm.LoginVariable",
    "dataBinding" : [ {
      "target" : "username",
      "value" : "bind:Widgets.usernametext.datavalue",
      "type" : "string"
    }, {
      "target" : "password",
      "value" : "bind:Widgets.passwordtext.datavalue",
      "type" : "string"
    }, {
      "target" : "rememberme",
      "value" : "bind:Widgets.remembermecheck.datavalue",
      "type" : "boolean"
    } ],
    "dataSet" : {
      "username" : "",
      "password" : "",
      "rememberme" : false
    },
    "type" : "string",
    "saveInPhonegap" : false,
    "onError" : "loginVariableonError($event, $s)",
    "startUpdate" : false,
    "autoUpdate" : false,
    "inFlightBehavior" : "executeLast",
    "transformationRequired" : false,
    "useDefaultSuccessHandler" : true
  },
  "logoutAction" : {
    "_id" : "wm-logoutAction-wm.LogoutVariable-1510225742294",
    "name" : "logoutAction",
    "owner" : "App",
    "category" : "wm.LogoutVariable",
    "type" : "string",
    "saveInPhonegap" : false,
    "inFlightBehavior" : "executeLast",
    "transformationRequired" : false,
    "redirectTo" : "Login",
    "useDefaultSuccessHandler" : true
  },
  "supportedLocale" : {
    "_id" : "wm-wm.Variable1402640443182",
    "name" : "supportedLocale",
    "owner" : "App",
    "category" : "wm.Variable",
    "dataSet" : {
      "en" : "English"
    },
    "type" : "string",
    "isList" : false,
    "saveInPhonegap" : false
  }
}